{
    "version": "https://jsonfeed.org/version/1",
    "title": "Take Care, Zuhair",
    "description": "",
    "home_page_url": "https://takecarezuhair.com",
    "feed_url": "https://takecarezuhair.com/feed.json",
    "user_comment": "",
    "icon": "https://takecarezuhair.com/media/website/tcz-logo-anim.png",
    "author": {
        "name": "Zuhair"
    },
    "items": [
        {
            "id": "https://takecarezuhair.com/multimodal-memories-interview/",
            "url": "https://takecarezuhair.com/multimodal-memories-interview/",
            "title": "Multimodal Memories: Interview by Africa is a Country Magazine",
            "summary": " Liz Timbs very kindly interviewed me about my 2017 short film Sketches&nbsp;for Africa is a Country. My responses are very serious and suggest I know what I'm doing far more than I actually do. Below is an extract from it. Read the full interview&hellip;",
            "content_html": "\n    <figure class=\"post__image post__image--wide\">\n      <img loading=\"lazy\" src=\"https://takecarezuhair.com/media/posts/9/From-Zuhair-Mehralis-Sketches-2017-1024x576.jpeg\" sizes=\"(max-width: 48em) 100vw, 768px\" srcset=\"https://takecarezuhair.com/media/posts/9/responsive/From-Zuhair-Mehralis-Sketches-2017-1024x576-xs.jpeg 300w ,https://takecarezuhair.com/media/posts/9/responsive/From-Zuhair-Mehralis-Sketches-2017-1024x576-sm.jpeg 480w ,https://takecarezuhair.com/media/posts/9/responsive/From-Zuhair-Mehralis-Sketches-2017-1024x576-md.jpeg 768w ,https://takecarezuhair.com/media/posts/9/responsive/From-Zuhair-Mehralis-Sketches-2017-1024x576-lg.jpeg 1024w ,https://takecarezuhair.com/media/posts/9/responsive/From-Zuhair-Mehralis-Sketches-2017-1024x576-xl.jpeg 1360w ,https://takecarezuhair.com/media/posts/9/responsive/From-Zuhair-Mehralis-Sketches-2017-1024x576-2xl.jpeg 1600w\"  height=\"576\" width=\"1024\" alt=\"Abstract sketch from Sketches (2017) by Zuhair Mehrali\" />\n      \n    </figure>\n\n  <p>\n    Liz Timbs very kindly interviewed me about my 2017 short film <a href=\"https://vimeo.com/214775417\" target=\"_blank\">Sketches</a>&nbsp;for Africa is a Country. My responses are very serious and suggest I know what I'm doing far more than I actually do.\n  </p>\n\n  <p>\n    Below is an extract from it. Read the full interview over at <a href=\"https://africasacountry.com/2019/10/multimodal-memories\" target=\"_blank\" class=\"\">Africa is a Country</a>.\n  </p>\n<hr class=\"separator separator--dots\" />\n\n  <p>\n    <b>Liz<br></b>&nbsp;<br>The first shot in your film is of a Victor Hugo quote:<br>\n  </p>\n\n    <figure class=\"blockquote\">\n      <blockquote>Exile is not a material thing, it is a spiritual thing. All the corners of the earth are exactly the same. And anywhere one can dream is good, providing the place is obscure, and the horizon is vast.</blockquote>\n      <figcaption>Victor Hugo</figcaption>\n    </figure>\n\n  <p>\n    How does Sketches build from/build on these reflections on place and identity?\n  </p>\n\n  <p>\n    <b>Me</b>\n  </p>\n\n  <p>\n    Hugo’s quote brought me great comfort during a time of feeling alienated. I discovered it as the prelude to Czech photographer Josef Koudelka’s <a href=\"https://www.magnumphotos.com/newsroom/society/josef-koudelka-exiles/\" target=\"_blank\">Exiles</a>, a powerful collection of photographs documenting physical and spiritual detachment. Being born and raised in England’s multicultural second city, Birmingham, living in the Cornish South-West during university left me feeling “away from the culture.” It was there that I began recognizing the inextricable link between place and identity. This self-interrogation was exacerbated in my final year [of university] by the knowledge that after graduating I’d be returning home to my parents with a fractured, unresolved sense of the cultural and religious values they’d instilled in me growing up. And it was in this period that I chanced upon Hugo and Koudelka, before deciding at my tutor’s suggestion to explore ancestry in my final project. (I recognize that my experience was not of any physical injustice or economic insecurity, but more of a psychological sense of dislocation—probably something hard to avoid when entering an institutional bubble.)\n  </p>\n\n  <p>\n    I began [this] inquiry by interviewing my parents—Indians born in Uganda and Tanzania in the second half of the twentieth century—while scouring several archives pertaining to East Africa, such as the <a href=\"https://carleton.ca/uganda-collection/\" target=\"_blank\">Uganda Collection</a> held by Carleton University [in Canada] and the <a href=\"https://dla.library.upenn.edu/dla/ead/ead.html?id=EAD_upenn_museum_PUMu1147\" target=\"_blank\" class=\"\">Watson Kintner Film Collection</a> at Penn Museum [in the United States]. At this point, I hadn’t considered the project’s form or narrative, until an almost unconscious moment during a break back home in Birmingham, I sat in front of the TV in a kind of slumber. Images of bright shirts and sharp ties, Donald Trump’s quackeries, and refugees at sea cross-faded with each other, as if my eyes were stuck in a DSLR auto-focus loop, interrupted by my parents behind me jokingly referring to one another as “refugee” and “immigrant.” I’d never properly confronted the realities behind these labels; there was a disparity between what I know of my parents’ experiences and those “other” subjectives being shown on the news.\n  </p>\n\n  <p>\n    An abstract of the project was essentially delivered to me in that moment: a dream-like film construction of displaced identity, collaging the places before me with the voices behind me.<br>\n  </p>\n\n    <figure class=\"post__image post__image--wide\">\n      <img loading=\"lazy\" src=\"https://takecarezuhair.com/media/posts/9/Zuhair-Mehrali-in-Sketches-2017.jpeg\" sizes=\"(max-width: 48em) 100vw, 768px\" srcset=\"https://takecarezuhair.com/media/posts/9/responsive/Zuhair-Mehrali-in-Sketches-2017-xs.jpeg 300w ,https://takecarezuhair.com/media/posts/9/responsive/Zuhair-Mehrali-in-Sketches-2017-sm.jpeg 480w ,https://takecarezuhair.com/media/posts/9/responsive/Zuhair-Mehrali-in-Sketches-2017-md.jpeg 768w ,https://takecarezuhair.com/media/posts/9/responsive/Zuhair-Mehrali-in-Sketches-2017-lg.jpeg 1024w ,https://takecarezuhair.com/media/posts/9/responsive/Zuhair-Mehrali-in-Sketches-2017-xl.jpeg 1360w ,https://takecarezuhair.com/media/posts/9/responsive/Zuhair-Mehrali-in-Sketches-2017-2xl.jpeg 1600w\"  height=\"998\" width=\"1777\" alt=\"Screenshot of man sketching a derelict airplane from Sketches (2017) by Zuhair Mehrali\" />\n      <figcaption>Screenshot from Sketches (2017)</figcaption>\n    </figure>\n<hr class=\"separator separator--dots\" />\n\n  <p>\n    Read the full interview over at <a href=\"https://africasacountry.com/2019/10/multimodal-memories\" target=\"_blank\">Africa is a Country</a>.\n  </p>\n\n  <p>\n    Take care, Zuhair\n  </p>\n<hr class=\"separator separator--long-line\" />\n<div><books>\n\n<bookspot>    \n    <bookcover>\n        <img loading=\"lazy\" src=\"https://tmff.net/wp-content/uploads/2018/01/sketches.jpg\" data-is-external-image=\"true\" />\n    </bookcover>\n    <bookinfo>\n        <booktitle>Sketches (2017)</booktitle>\n        <bookauthor>Zuhair Mehrali</bookauthor>\n        <a class=\"button\" href=\"https://vimeo.com/214775417\" target=\"_blank\"><button><span class=\"isExtLink\">Watch Now</span></button></a>\n        <a class=\"button\" href=\"https://www.imdb.com/title/tt7948850/?ref_=nm_knf_i1\" target=\"_blank\"><button><span class=\"isExtLink\">iMDB</span></button></a>\n        <a class=\"button\" href=\"https://letterboxd.com/film/sketches-2017/\" target=\"_blank\"><button><span class=\"isExtLink\">Letterboxd</span></button></a>\n    </bookinfo>\n</bookspot>\n\n</books>\n</div>",
            "image": "https://takecarezuhair.com/media/posts/9/Screen_Shot_2018-02-05_at_20.30.30_1920x1080-1.png",
            "author": {
                "name": "Zuhair"
            },
            "tags": [
                   "Sketches",
                   "Interview",
                   "Film",
                   "2019"
            ],
            "date_published": "2019-10-31T12:39:00+00:00",
            "date_modified": "2021-07-15T00:35:05+01:00"
        },
        {
            "id": "https://takecarezuhair.com/new-work-recollection-2019/",
            "url": "https://takecarezuhair.com/new-work-recollection-2019/",
            "title": "New Short Film: Recollection (2019)",
            "summary": " Recollection is out! It's an audiovisual composition that revisits some 1960-80's East African archives—watch it now: The present is projected onto the past. Reconstructing ancestral memory creates new myths—both reductive and visceral—along the way. This film recollects East-African Asian displacement in the 1970s to&hellip;",
            "content_html": "\n  <p>\n    Recollection is out! It's an audiovisual composition that revisits some 1960-80's East African archives—watch it now:\n  </p>\n<div><div class=\"post__iframe\"><iframe loading=\"lazy\" src=\"https://player.vimeo.com/video/346536596?badge=0&amp;autopause=0&amp;player_id=0&amp;app_id=58479\" frameborder=\"0\" allow=\"autoplay; fullscreen; picture-in-picture\" allowfullscreen style=\"position:absolute;top:0;left:0;width:100%;height:100%;\" title=\"Recollection (2019)\"></iframe></div><script src=\"https://player.vimeo.com/api/player.js\"></script>\n</div>\n\n    <h3 id=\"synopsis\">\n      Synopsis\n    </h3>\n\n  <p>\n    The present is projected onto the past. Reconstructing ancestral memory creates new myths—both reductive and visceral—along the way. This film recollects East-African Asian displacement in the 1970s to an ambient score.\n  </p>\n\n    <h3 id=\"music\">\n      Music\n    </h3>\n<div><div style=\"height:120px; overflow:hidden; margin-top: -30px !important;\"><div class=\"post__iframe\"><iframe loading=\"lazy\" src=\"https://open.spotify.com/embed/track/4ljOK7q7Tmqflg6oE8QvDI?theme=0\" width=\"100%\" height=\"80\" frameBorder=\"0\" allowtransparency=\"true\" allow=\"encrypted-media\"></iframe></div></div>\n</div>\n\n  <p>\n    Download/stream the music on your favourite platform: <a href=\"https://ampl.ink/gGVqX\" target=\"_blank\">ampl.ink/gGVqX</a>\n  </p>\n\n  <p>\n    Take care, Zuhair\n  </p>\n<hr class=\"separator separator--long-line\" />\n<div><books>\n\n<bookspot>    \n    <bookcover>\n        <img loading=\"lazy\" src=\"https://m.media-amazon.com/images/M/MV5BZjZlYjQyNjctMzFkNC00ODI1LTg3YjAtNzM3Mjk3ZDc0NWIyXkEyXkFqcGdeQXVyNDg2NjY0Mzk@._V1_.jpg\" data-is-external-image=\"true\" />\n    </bookcover>\n    <bookinfo>\n        <booktitle>Recollection (2019)</booktitle>\n        <bookauthor>Zuhair Mehrali</bookauthor>\n        <a class=\"button\" href=\"https://vimeo.com/346536596\" target=\"_blank\"><button><span class=\"isExtLink\">Watch Now</span></button></a>\n        <a class=\"button\" href=\"https://www.imdb.com/title/tt10546296/?ref_=nm_knf_i2\" target=\"_blank\"><button><span class=\"isExtLink\">iMDB</span></button></a>\n        <a class=\"button\" href=\"https://letterboxd.com/film/recollection-2019/\" target=\"_blank\"><button><span class=\"isExtLink\">Letterboxd</span></button></a>\n    </bookinfo>\n</bookspot>\n\n</books>\n\n</div>",
            "image": "https://takecarezuhair.com/media/posts/10/Zuhair-Mehrali-Recollection-Still_2.png",
            "author": {
                "name": "Zuhair"
            },
            "tags": [
                   "Recollection",
                   "New Work",
                   "Music",
                   "Film",
                   "Animation",
                   "2019"
            ],
            "date_published": "2019-07-06T09:19:00+01:00",
            "date_modified": "2021-07-15T00:03:21+01:00"
        },
        {
            "id": "https://takecarezuhair.com/reconstructing-meaning-of-displacement-article-for-i-docs/",
            "url": "https://takecarezuhair.com/reconstructing-meaning-of-displacement-article-for-i-docs/",
            "title": "Reconstructing Meaning of Displacement: Article for i-Docs",
            "summary": " After graduating, I wrote an article discussing my film Sketches (2017) and how it was built to be deconstructed in the interactive&nbsp;Sketches Studio. Below is an extract from it. Read the full interview over at i-Docs. Making the film began with conducting and recording&hellip;",
            "content_html": "\n    <figure class=\"post__image post__image--wide\">\n      <img loading=\"lazy\" src=\"https://takecarezuhair.com/media/posts/11/5.jpeg\" sizes=\"(max-width: 48em) 100vw, 768px\" srcset=\"https://takecarezuhair.com/media/posts/11/responsive/5-xs.jpeg 300w ,https://takecarezuhair.com/media/posts/11/responsive/5-sm.jpeg 480w ,https://takecarezuhair.com/media/posts/11/responsive/5-md.jpeg 768w ,https://takecarezuhair.com/media/posts/11/responsive/5-lg.jpeg 1024w ,https://takecarezuhair.com/media/posts/11/responsive/5-xl.jpeg 1360w ,https://takecarezuhair.com/media/posts/11/responsive/5-2xl.jpeg 1600w\"  height=\"859\" width=\"1500\" alt=\"\" />\n      \n    </figure>\n\n  <p>\n    After graduating, I wrote an article discussing my film <a href=\"https://vimeo.com/214775417\" target=\"_blank\">Sketches (2017)</a> and how it was built to be deconstructed in the interactive&nbsp;<a href=\"https://sketches.zuhairmehrali.com/\" target=\"_blank\">Sketches Studio</a>. Below is an extract from it. Read the full interview over at <a href=\"http://i-docs.org/sketches-reconstructing-meaning-displacement-zuhair-mehrali/\" target=\"_blank\">i-Docs</a>.\n  </p>\n<hr class=\"separator separator--dots\" />\n\n    <h2 id=\"production-notes\">\n      Production Notes\n    </h2>\n\n  <p>\n    Making the film began with conducting and recording several phone interviews with my parents about their upbringing in, and migration from, East Africa. It’s worth mentioning that although I did initial fact-checking of their anecdotes (with the intention of repeating the interviews with corrections afterwards), this was quickly stopped in favour of using unedited interview footage, with all of the natural human error and sound interference that comes with spontaneous recollection over the phone. From this, the potential of an interactive component became clearer; as well as allowing for closer inspection of visual material referenced within the film, interaction could also allow one to validate claims made within the phone recordings against relevant online news sources.\n  </p>\n\n  <p>\n    After further primary research was conducted, secondary material was gathered. Archive video was provided by Penn Museum, and scans of the Uganda Argus newspaper (specifically issues printed in 1972) were provided by Carleton University’s MacOdrum Library. The latter feature prominently in Studio as newspaper clippings – visible depending on what is being referred to in my parents’ voice overs – that can be enlarged and read.\n  </p>\n\n    <figure class=\"post__image post__image--center\">\n      <img loading=\"lazy\" src=\"https://takecarezuhair.com/media/posts/11/2.jpeg\" sizes=\"(max-width: 48em) 100vw, 768px\" srcset=\"https://takecarezuhair.com/media/posts/11/responsive/2-xs.jpeg 300w ,https://takecarezuhair.com/media/posts/11/responsive/2-sm.jpeg 480w ,https://takecarezuhair.com/media/posts/11/responsive/2-md.jpeg 768w ,https://takecarezuhair.com/media/posts/11/responsive/2-lg.jpeg 1024w ,https://takecarezuhair.com/media/posts/11/responsive/2-xl.jpeg 1360w ,https://takecarezuhair.com/media/posts/11/responsive/2-2xl.jpeg 1600w\"  height=\"720\" width=\"1032\" alt=\"\" />\n      <figcaption>Example of a Primary Source used in Sketches Studio</figcaption>\n    </figure>\n<hr class=\"separator separator--dots\" />\n\n  <p>\n    Watch Sketches here: <a href=\"https://vimeo.com/214775417\" target=\"_blank\" class=\"\">vimeo.com/214775417</a><br>Deconstruct it in Sketches Studio here: <a href=\"https://sketches.zuhairmehrali.com\" class=\"\" target=\"_blank\">sketches.zuhairmehrali.com</a>\n  </p>\n\n  <p>\n    Take care, Zuhair\n  </p>\n<hr class=\"separator separator--long-line\" />\n<div><books>\n\n<bookspot>    \n    <bookcover>\n        <img loading=\"lazy\" src=\"https://tmff.net/wp-content/uploads/2018/01/sketches.jpg\" data-is-external-image=\"true\" />\n    </bookcover>\n    <bookinfo>\n        <booktitle>Sketches (2017)</booktitle>\n        <bookauthor>Zuhair Mehrali</bookauthor>\n        <a class=\"button\" href=\"https://vimeo.com/214775417\" target=\"_blank\"><button><span class=\"isExtLink\">Watch Now</span></button></a>\n        <a class=\"button\" href=\"https://www.imdb.com/title/tt7948850/?ref_=nm_knf_i1\" target=\"_blank\"><button><span class=\"isExtLink\">iMDB</span></button></a>\n        <a class=\"button\" href=\"https://letterboxd.com/film/sketches-2017/\" target=\"_blank\"><button><span class=\"isExtLink\">Letterboxd</span></button></a>\n    </bookinfo>\n</bookspot>\n\n</books></div>",
            "image": "https://takecarezuhair.com/media/posts/11/Screen-Shot-2018-02-05-at-20.34.00.png",
            "author": {
                "name": "Zuhair"
            },
            "tags": [
                   "Sketches",
                   "Interview",
                   "Film",
                   "2017"
            ],
            "date_published": "2017-08-01T21:48:00+01:00",
            "date_modified": "2021-07-15T00:34:51+01:00"
        },
        {
            "id": "https://takecarezuhair.com/new-short-film-sketches-2017/",
            "url": "https://takecarezuhair.com/new-short-film-sketches-2017/",
            "title": "New Short Film: Sketches (2017)",
            "summary": " Sketches (2017) is out!&nbsp; It's 2-part project exploring my East African Asian ancestry in an experimental film and interactive web-app. Both personal and secondary oral histories and archive material are used to explore the theme of displacement. I also created it as a little&hellip;",
            "content_html": "<div><div class=\"post__iframe\"><iframe loading=\"lazy\" src=\"https://player.vimeo.com/video/341127251?badge=0&amp;autopause=0&amp;player_id=0&amp;app_id=58479\" frameborder=\"0\" allow=\"autoplay; fullscreen; picture-in-picture\" allowfullscreen style=\"position:absolute;top:0;left:0;width:100%;height:100%;\" title=\"Sketches (2017) - Official Trailer\"></iframe></div><script src=\"https://player.vimeo.com/api/player.js\"></script></div>\n\n  <p>\n    Sketches (2017) is out!&nbsp;\n  </p>\n\n  <p>\n    It's 2-part project exploring my East African Asian ancestry in an experimental film and interactive web-app. Both personal and secondary oral histories and archive material are used to explore the theme of displacement. I also created it as a little artefact for my family and parents to show my appreciation for them.\n  </p>\n<hr class=\"separator separator--dots\" />\n\n    <h2 id=\"watch-the-film\">\n      Watch the Film\n    </h2>\n<div><div class=\"post__iframe\"><iframe loading=\"lazy\" src=\"https://player.vimeo.com/video/214775417?color=B95229\" width=\"640\" height=\"360\" frameborder=\"0\" allow=\"autoplay; fullscreen; picture-in-picture\" allowfullscreen></iframe></div></div>\n\n  <p>\n    2017 35 min UK<br>Writer/Director: Zuhair Mehrali<br>Cast: Irshad Mehrali, Shahina Mehrali, Zuhair Mehrali, Adam Rogers<br>Crew: Moonfood Creative (Oliver Cole, Matthew Delaloye, Adam Rogers)\n  </p>\n<div><span class=\"imdbRatingPlugin\" data-user=\"ur48666439\" data-title=\"tt7948850\" data-style=\"p2\"><a class=\"imdb-button\" href=\"https://www.imdb.com/title/tt7948850/?ref_=plg_rt_1\"><img loading=\"lazy\" src=\"https://ia.media-imdb.com/images/G/01/imdb/plugins/rating/images/imdb_38x18.png\" data-is-external-image=\"true\"  alt=\" Sketches\n(2017) on IMDb\" />\n</a></span><script>(function(d,s,id){var js,stags=d.getElementsByTagName(s)[0];if(d.getElementById(id)){return;}js=d.createElement(s);js.id=id;js.src=\"https://ia.media-imdb.com/images/G/01/imdb/plugins/rating/js/rating.js\";stags.parentNode.insertBefore(js,stags);})(document,\"script\",\"imdb-rating-api\");</script></div>\n\n    <h2 id=\"synopsis\">\n      Synopsis\n    </h2>\n\n    <figure class=\"post__image post__image--center\">\n      <img loading=\"lazy\" src=\"https://takecarezuhair.com/media/posts/12/Screen-Shot-2017-04-27-at-07.56.38-copy.png\" sizes=\"(max-width: 48em) 100vw, 768px\" srcset=\"https://takecarezuhair.com/media/posts/12/responsive/Screen-Shot-2017-04-27-at-07.56.38-copy-xs.png 300w ,https://takecarezuhair.com/media/posts/12/responsive/Screen-Shot-2017-04-27-at-07.56.38-copy-sm.png 480w ,https://takecarezuhair.com/media/posts/12/responsive/Screen-Shot-2017-04-27-at-07.56.38-copy-md.png 768w ,https://takecarezuhair.com/media/posts/12/responsive/Screen-Shot-2017-04-27-at-07.56.38-copy-lg.png 1024w ,https://takecarezuhair.com/media/posts/12/responsive/Screen-Shot-2017-04-27-at-07.56.38-copy-xl.png 1360w ,https://takecarezuhair.com/media/posts/12/responsive/Screen-Shot-2017-04-27-at-07.56.38-copy-2xl.png 1600w\"  height=\"1079\" width=\"1920\" alt=\"\" />\n      \n    </figure>\n\n  <p>\n    A British artist misses his parents' wedding anniversary for a last-minute sketching commission in Cornwall, but memories of them affect his work along the way.<br>\n  </p>\n\n    <h2 id=\"interactive\">\n      Interactive\n    </h2>\n\n    <figure class=\"post__image post__image--center\">\n      <img loading=\"lazy\" src=\"https://takecarezuhair.com/media/posts/12/5.jpeg\" sizes=\"(max-width: 48em) 100vw, 768px\" srcset=\"https://takecarezuhair.com/media/posts/12/responsive/5-xs.jpeg 300w ,https://takecarezuhair.com/media/posts/12/responsive/5-sm.jpeg 480w ,https://takecarezuhair.com/media/posts/12/responsive/5-md.jpeg 768w ,https://takecarezuhair.com/media/posts/12/responsive/5-lg.jpeg 1024w ,https://takecarezuhair.com/media/posts/12/responsive/5-xl.jpeg 1360w ,https://takecarezuhair.com/media/posts/12/responsive/5-2xl.jpeg 1600w\"  height=\"859\" width=\"1500\" alt=\"\" />\n      \n    </figure>\n\n  <p>\n    Interact with and deconstruct the film in 'Sketches Studio', now in public beta: <a href=\"https://sketches.zuhairmehrali.com\" target=\"_blank\">sketches.zuhairmehrali.com</a>.\n  </p>\n\n  <p>\n    It lets you do all the following in <b>real-time </b>to deconstruct and reconstruct the experience for yourself:\n  </p>\n\n  <ul>\n    <li>Explore references, sketches and news articles as they pertain to what's currently happening in the film;</li><li>Follow transcripts of my parents' dialogue; and</li><li>Toggle audio tracks.</li>\n  </ul>\n\n    <h2 id=\"press\">\n      Press\n    </h2>\n\n    <figure class=\"post__image post__image--center\">\n      <img loading=\"lazy\" src=\"https://takecarezuhair.com/media/posts/12/Screen-Shot-2018-02-05-at-20.31.04-copy.png\" sizes=\"(max-width: 48em) 100vw, 768px\" srcset=\"https://takecarezuhair.com/media/posts/12/responsive/Screen-Shot-2018-02-05-at-20.31.04-copy-xs.png 300w ,https://takecarezuhair.com/media/posts/12/responsive/Screen-Shot-2018-02-05-at-20.31.04-copy-sm.png 480w ,https://takecarezuhair.com/media/posts/12/responsive/Screen-Shot-2018-02-05-at-20.31.04-copy-md.png 768w ,https://takecarezuhair.com/media/posts/12/responsive/Screen-Shot-2018-02-05-at-20.31.04-copy-lg.png 1024w ,https://takecarezuhair.com/media/posts/12/responsive/Screen-Shot-2018-02-05-at-20.31.04-copy-xl.png 1360w ,https://takecarezuhair.com/media/posts/12/responsive/Screen-Shot-2018-02-05-at-20.31.04-copy-2xl.png 1600w\"  height=\"1076\" width=\"1920\" alt=\"\" />\n      \n    </figure>\n\n  <ul>\n    <li><a href=\"https://africasacountry.com/2019/10/multimodal-memories\" target=\"_blank\">Multimodal Memories: An Interview with Zuhair Mehrali - Africa is a Country Magazine</a></li><li><a href=\"http://i-docs.org/sketches-reconstructing-meaning-displacement-zuhair-mehrali/\" target=\"_blank\">Sketches: Reconstructing meaning of displacement - i-Docs</a><br></li>\n  </ul>\n\n    <h2 id=\"awards\">\n      Awards\n    </h2>\n\n  <ul>\n    <li>TMFF - The Monthly Film Festival (January Edition), Winner of Best Student Film and Experimental of the Month, Nominated for Editor of the Month</li><li>NYC Indie Film Awards, Winner of Best Student Film</li><li>Ouchy Film Awards, Nominated for Best Short Film</li><li>Dumbo Film Awards, Nominated for Best Short Documentary</li><li>Beyond Earth Film Festival, Nominated for Best Short Film</li><li>Asian Cinematography Awards, Finalist for Best Cinematography of a Documentary Short Film</li><li>Bucharest ShortCut CineFest, Nominated for Best Short Film</li><li>Top Indie Film Awards, Official Selection</li>\n  </ul>\n<hr class=\"separator separator--dots\" />\n\n  <p>\n    Let me know what you think of the project by <a href=\"https://takecarezuhair.com/write-to-me/\">writing to me</a>.\n  </p>\n\n  <p>\n    Take care, Zuhair\n  </p>\n<hr class=\"separator separator--long-line\" />\n<div><books>\n\n<bookspot>    \n    <bookcover>\n        <img loading=\"lazy\" src=\"https://tmff.net/wp-content/uploads/2018/01/sketches.jpg\" data-is-external-image=\"true\" />\n    </bookcover>\n    <bookinfo>\n        <booktitle>Sketches (2017)</booktitle>\n        <bookauthor>Zuhair Mehrali</bookauthor>\n        <a class=\"button\" href=\"https://vimeo.com/214775417\" target=\"_blank\"><button><span class=\"isExtLink\">Watch Now</span></button></a>\n        <a class=\"button\" href=\"https://www.imdb.com/title/tt7948850/?ref_=nm_knf_i1\" target=\"_blank\"><button><span class=\"isExtLink\">iMDB</span></button></a>\n        <a class=\"button\" href=\"https://letterboxd.com/film/sketches-2017/\" target=\"_blank\"><button><span class=\"isExtLink\">Letterboxd</span></button></a>\n    </bookinfo>\n</bookspot>\n\n</books></div>",
            "image": "https://takecarezuhair.com/media/posts/12/Video_Player_cover-2-12May2019.jpg",
            "author": {
                "name": "Zuhair"
            },
            "tags": [
                   "Sketches",
                   "New Work",
                   "Film",
                   "2017"
            ],
            "date_published": "2017-04-25T10:25:00+01:00",
            "date_modified": "2021-07-19T13:12:43+01:00"
        },
        {
            "id": "https://takecarezuhair.com/question-mark/",
            "url": "https://takecarezuhair.com/question-mark/",
            "title": "?",
            "summary": " Who? I'm a chaii-fuelled creative working in the media industry while trying to carve out an art practice from my love of animation, film and music. This website serves as an online journal of general inspiration, learnings and thoughts, a refuge from--and antithesis to--the&hellip;",
            "content_html": "\n    <h2 id=\"who\">\n      Who?\n    </h2>\n<div><p>I'm a <a id=\"chaiiTip\" href=\"#\">chaii-fuelled</a> creative working in the media industry while trying to carve out an art practice from my love of animation, film and music.</p></div>\n\n    <h2 id=\"what\">\n      What?\n    </h2>\n\n  <p>\n    This website serves as an online journal of general inspiration, learnings and thoughts, a refuge from--and antithesis to--the social media offerings I've grown to find increasingly parasitic.\n  </p>\n\n    <h2 id=\"where\">\n      Where?\n    </h2>\n<div><p>From The City of the <a id=\"concreteCakeTip\" href=\"#\">Concrete Cake</a>, UK. Kudos to everyone who gets the reference.</p></div>\n\n    <h2 id=\"why\">\n      Why?\n    </h2>\n\n  <p>\n    To have a space where I can share honest notes on my creative process and self-development with a small but intentionally engaged community. I feel that dropping these thoughts in the social media sea dilutes them (through self-consciousness) and writing them in my private notebook concentrates them (through self-indulgence). Both have their uses but also carry pressures: one from a Cookie Monster-like algorithm and the other from, well, a lack of cookies to bring Redemption post-Shawshank. And I think cross-medium pollination doesn't work so well:&nbsp;concentrated thoughts on social media and diluted thoughts in a notebook lead to all-round disengagement.&nbsp;&nbsp;\n  </p>\n<div><p>So the middle ground is this little online journal where I can be real (but not raw) with myself and with you. If this resonates, why not <a href=\"/subscribe\" id=\"subscribeTip\" class=\"openPopup\">stay in touch</a>?</p></div>\n\n  <p>\n    Take care, Zuhair\n  </p>\n<hr class=\"separator separator--long-line\" />\n\n    <h6 id=\"at-time-of-writing\">\n      At Time of Writing\n    </h6>\n<div><ul>\n<li>Listening: <a href=\"https://www.youtube.com/watch?v=froN9ra4kZI\" target=\"_blank\">Ride Or Die (feat. Chilly Gonzales) - Boys Noize, Kelsey Lu, Chilly Gonzales</a></li>\n<li>Reading: <a href=\"https://amzn.to/2TMwEup\" target=\"_blank\">A History of God - Karen Armstrong</a></li>\n<li>Watching: <a href=\"https://amzn.to/3q62grf\" target=\"_blank\">Mare of Easttown - Sky Atlantic</a></i></li>\n</ul></div>\n<div><script>\n$('#concreteCakeTip, #chaiiTip').click(function(e){\n    e.preventDefault();\n});\n\ntippy('#chaiiTip', {\n    content: '<img loading=\"lazy\" loading=\"eager\" src=\"https://www.chaiiwala.co.uk/wp-content/uploads/2017/11/saffron-chai.jpg\" data-is-external-image=\"true\"  alt=\"Yummy karak chaii\"/>',\n    allowHTML: true\n      });\n\n/*tippy('#subscribeTip', {\n    content: 'Subscribe to infrequent email updates'\n      });*/\n      \ntippy('#concreteCakeTip', {\n    content: '<img loading=\"lazy\" loading=\"eager\" src=\"https://assets-eu-01.kc-usercontent.com/559bb7d3-88a4-01c1-79a3-dd4d5b2d2bb0/5e83cf36-f776-40c0-8a84-640bfe02278e/Concrete-Cake_Main.jpg?w=3840&q=85&auto=format&lossless=1\" data-is-external-image=\"true\"  alt=\"Yummy concrete cake\"/>',\n    allowHTML: true,\n    interactive: true\n      });\n</script>\n</div>",
            "image": "https://takecarezuhair.com/media/posts/3/chaii-floater-opt.gif",
            "author": {
                "name": "Zuhair"
            },
            "tags": [
            ],
            "date_published": "2017-03-18T11:46:00+00:00",
            "date_modified": "2021-07-14T22:32:12+01:00"
        }
    ]
}
